%YAML 1.1
%TAG !u! tag:unity3d.com,2011:
--- !u!74 &7400000
AnimationClip:
  m_ObjectHideFlags: 0
  m_CorrespondingSourceObject: {fileID: 0}
  m_PrefabInstance: {fileID: 0}
  m_PrefabAsset: {fileID: 0}
  m_Name: Run
  serializedVersion: 6
  m_Legacy: 0
  m_Compressed: 0
  m_UseHighQualityCurve: 1
  m_RotationCurves: []
  m_CompressedRotationCurves: []
  m_EulerCurves: []
  m_PositionCurves: []
  m_ScaleCurves: []
  m_FloatCurves: []
  m_PPtrCurves:
  - curve:
    - time: 0
      value: {fileID: 21300000, guid: 7b75f9feaf47c7f48abd34cf9b131608, type: 3}
    - time: 0.083333336
      value: {fileID: 21300000, guid: f4a2a6b7d76f1f8409d488115bdb533f, type: 3}
    - time: 0.16666667
      value: {fileID: 21300000, guid: acd80e9633be3ff47b57237da21a1e05, type: 3}
    - time: 0.25
      value: {fileID: 21300000, guid: 1553845f14b21304aa1192a985a4fd7d, type: 3}
    - time: 0.33333334
      value: {fileID: 21300000, guid: 626ebd3aec52333489a799e081307a27, type: 3}
    - time: 0.41666666
      value: {fileID: 21300000, guid: 464550b813d0caf4b8a0286c60a5d9b0, type: 3}
    - time: 0.5
      value: {fileID: 21300000, guid: 9c30214dcf68fad41ba09df8fcf4db04, type: 3}
    - time: 0.5833333
      value: {fileID: 21300000, guid: e5e73967199bc4542b89f2590581c8de, type: 3}
    - time: 0.6666667
      value: {fileID: 21300000, guid: b5912769c75636548ad6920415abca46, type: 3}
    - time: 0.75
      value: {fileID: 21300000, guid: bd8f8a245292a974583405d7d29bb1c0, type: 3}
    attribute: m_Sprite
    path: 
    classID: 212
    script: {fileID: 0}
  m_SampleRate: 12
  m_WrapMode: 0
  m_Bounds:
    m_Center: {x: 0, y: 0, z: 0}
    m_Extent: {x: 0, y: 0, z: 0}
  m_ClipBindingConstant:
    genericBindings:
    - serializedVersion: 2
      path: 0
      attribute: 0
      script: {fileID: 0}
      typeID: 212
      customType: 23
      isPPtrCurve: 1
    pptrCurveMapping:
    - {fileID: 21300000, guid: 7b75f9feaf47c7f48abd34cf9b131608, type: 3}
    - {fileID: 21300000, guid: f4a2a6b7d76f1f8409d488115bdb533f, type: 3}
    - {fileID: 21300000, guid: acd80e9633be3ff47b57237da21a1e05, type: 3}
    - {fileID: 21300000, guid: 1553845f14b21304aa1192a985a4fd7d, type: 3}
    - {fileID: 21300000, guid: 626ebd3aec52333489a799e081307a27, type: 3}
    - {fileID: 21300000, guid: 464550b813d0caf4b8a0286c60a5d9b0, type: 3}
    - {fileID: 21300000, guid: 9c30214dcf68fad41ba09df8fcf4db04, type: 3}
    - {fileID: 21300000, guid: e5e73967199bc4542b89f2590581c8de, type: 3}
    - {fileID: 21300000, guid: b5912769c75636548ad6920415abca46, type: 3}
    - {fileID: 21300000, guid: bd8f8a245292a974583405d7d29bb1c0, type: 3}
  m_AnimationClipSettings:
    serializedVersion: 2
    m_AdditiveReferencePoseClip: {fileID: 0}
    m_AdditiveReferencePoseTime: 0
    m_StartTime: 0
    m_StopTime: 0.8333333
    m_OrientationOffsetY: 0
    m_Level: 0
    m_CycleOffset: 0
    m_HasAdditiveReferencePose: 0
    m_LoopTime: 1
    m_LoopBlend: 0
    m_LoopBlendOrientation: 0
    m_LoopBlendPositionY: 0
    m_LoopBlendPositionXZ: 0
    m_KeepOriginalOrientation: 0
    m_KeepOriginalPositionY: 1
    m_KeepOriginalPositionXZ: 0
    m_HeightFromFeet: 0
    m_Mirror: 0
  m_EditorCurves: []
  m_EulerEditorCurves: []
  m_HasGenericRootTransform: 0
  m_HasMotionFloatCurves: 0
  m_Events: []
